EESchema Schematic File Version 4
EELAYER 30 0
EELAYER END
$Descr A4 11693 8268
encoding utf-8
Sheet 1 1
Title "Tiny K2000"
Date "2022-07-27"
Rev "2"
Comp "Nitraced"
Comment1 "For Edwige"
Comment2 ""
Comment3 ""
Comment4 ""
$EndDescr
$Comp
L tiny:ATMEL85_tiny U2
U 1 1 62E19F7F
P 3200 3400
F 0 "U2" H 3200 3515 50  0000 C CNN
F 1 "ATMEL85_tiny" H 3200 3424 50  0000 C CNN
F 2 "Package_DIP:DIP-8_W7.62mm" H 3200 3400 50  0001 C CNN
F 3 "" H 3200 3400 50  0001 C CNN
	1    3200 3400
	1    0    0    -1  
$EndComp
$Comp
L Device:R R5
U 1 1 62E1AC60
P 1150 4250
F 0 "R5" H 1220 4296 50  0000 L CNN
F 1 "47K" H 1220 4205 50  0000 L CNN
F 2 "Resistor_THT:R_Axial_DIN0207_L6.3mm_D2.5mm_P7.62mm_Horizontal" V 1080 4250 50  0001 C CNN
F 3 "~" H 1150 4250 50  0001 C CNN
	1    1150 4250
	1    0    0    -1  
$EndComp
$Comp
L Device:LED D6
U 1 1 62E1AFAA
P 2000 3700
F 0 "D6" H 1993 3917 50  0000 C CNN
F 1 "HIGH_SCORES" H 1993 3826 50  0000 C CNN
F 2 "LED_THT:LED_D5.0mm" H 2000 3700 50  0001 C CNN
F 3 "~" H 2000 3700 50  0001 C CNN
	1    2000 3700
	1    0    0    -1  
$EndComp
$Comp
L Sensor_Optical:LDR03 R1
U 1 1 62E1B40D
P 1150 3600
F 0 "R1" H 1220 3646 50  0000 L CNN
F 1 "LDR03" H 1220 3555 50  0000 L CNN
F 2 "OptoDevice:R_LDR_7x6mm_P5.1mm_Vertical" V 1325 3600 50  0001 C CNN
F 3 "http://www.elektronica-componenten.nl/WebRoot/StoreNL/Shops/61422969/54F1/BA0C/C664/31B9/2173/C0A8/2AB9/2AEF/LDR03IMP.pdf" H 1150 3550 50  0001 C CNN
	1    1150 3600
	1    0    0    -1  
$EndComp
$Comp
L 4xxx:4028 U3
U 1 1 62E1B9DA
P 6450 3650
F 0 "U3" H 6450 4531 50  0000 C CNN
F 1 "4028" H 6450 4440 50  0000 C CNN
F 2 "Package_DIP:DIP-16_W7.62mm" H 6450 3650 50  0001 C CNN
F 3 "http://www.intersil.com/content/dam/Intersil/documents/cd40/cd4028bms.pdf" H 6450 3650 50  0001 C CNN
	1    6450 3650
	1    0    0    -1  
$EndComp
$Comp
L Regulator_Linear:L7805 U1
U 1 1 62E1C5F3
P 2200 1450
F 0 "U1" H 2200 1692 50  0000 C CNN
F 1 "L7805" H 2200 1601 50  0000 C CNN
F 2 "Package_TO_SOT_THT:TO-220-3_Vertical" H 2225 1300 50  0001 L CIN
F 3 "http://www.st.com/content/ccc/resource/technical/document/datasheet/41/4f/b3/b0/12/d4/47/88/CD00000444.pdf/files/CD00000444.pdf/jcr:content/translations/en.CD00000444.pdf" H 2200 1400 50  0001 C CNN
	1    2200 1450
	1    0    0    -1  
$EndComp
$Comp
L Connector:Screw_Terminal_01x02 J1
U 1 1 62E1D129
P 1000 1550
F 0 "J1" H 918 1225 50  0000 C CNN
F 1 "Power" H 918 1316 50  0000 C CNN
F 2 "TerminalBlock:TerminalBlock_bornier-2_P5.08mm" H 1000 1550 50  0001 C CNN
F 3 "~" H 1000 1550 50  0001 C CNN
	1    1000 1550
	-1   0    0    1   
$EndComp
$Comp
L Diode:1N4001 D1
U 1 1 62E1DC3A
P 1550 1450
F 0 "D1" H 1550 1667 50  0000 C CNN
F 1 "1N4001" H 1550 1576 50  0000 C CNN
F 2 "Diode_THT:D_DO-41_SOD81_P10.16mm_Horizontal" H 1550 1275 50  0001 C CNN
F 3 "http://www.vishay.com/docs/88503/1n4001.pdf" H 1550 1450 50  0001 C CNN
	1    1550 1450
	-1   0    0    1   
$EndComp
$Comp
L power:GND #PWR02
U 1 1 62E2E11A
P 1300 1900
F 0 "#PWR02" H 1300 1650 50  0001 C CNN
F 1 "GND" H 1305 1727 50  0000 C CNN
F 2 "" H 1300 1900 50  0001 C CNN
F 3 "" H 1300 1900 50  0001 C CNN
	1    1300 1900
	1    0    0    -1  
$EndComp
$Comp
L power:+5V #PWR01
U 1 1 62E2E4BF
P 2700 1450
F 0 "#PWR01" H 2700 1300 50  0001 C CNN
F 1 "+5V" V 2715 1578 50  0000 L CNN
F 2 "" H 2700 1450 50  0001 C CNN
F 3 "" H 2700 1450 50  0001 C CNN
	1    2700 1450
	0    1    1    0   
$EndComp
$Comp
L power:GND #PWR03
U 1 1 62E30C1F
P 2200 1900
F 0 "#PWR03" H 2200 1650 50  0001 C CNN
F 1 "GND" H 2205 1727 50  0000 C CNN
F 2 "" H 2200 1900 50  0001 C CNN
F 3 "" H 2200 1900 50  0001 C CNN
	1    2200 1900
	1    0    0    -1  
$EndComp
Wire Wire Line
	1300 1900 1300 1550
Wire Wire Line
	1300 1550 1200 1550
Wire Wire Line
	1200 1450 1400 1450
Wire Wire Line
	1700 1450 1900 1450
Wire Wire Line
	2200 1750 2200 1900
Wire Wire Line
	2500 1450 2700 1450
Text Notes 1550 1100 0    197  ~ 0
ALIM
Text Notes 1050 3000 0    197  ~ 0
Interface
$Comp
L Device:R R6
U 1 1 62E44707
P 1700 4250
F 0 "R6" H 1770 4296 50  0000 L CNN
F 1 "470R" H 1770 4205 50  0000 L CNN
F 2 "Resistor_THT:R_Axial_DIN0207_L6.3mm_D2.5mm_P7.62mm_Horizontal" V 1630 4250 50  0001 C CNN
F 3 "~" H 1700 4250 50  0001 C CNN
	1    1700 4250
	1    0    0    -1  
$EndComp
Wire Wire Line
	1150 3450 1150 3350
$Comp
L power:+5V #PWR06
U 1 1 62E47DD8
P 1150 3350
F 0 "#PWR06" H 1150 3200 50  0001 C CNN
F 1 "+5V" V 1165 3478 50  0000 L CNN
F 2 "" H 1150 3350 50  0001 C CNN
F 3 "" H 1150 3350 50  0001 C CNN
	1    1150 3350
	1    0    0    -1  
$EndComp
Wire Wire Line
	1150 4400 1150 4550
Wire Wire Line
	1700 3700 1850 3700
Wire Wire Line
	2150 3700 2650 3700
Wire Wire Line
	1700 3700 1700 4100
Wire Wire Line
	1150 3750 1150 3850
Wire Wire Line
	2650 3850 1150 3850
Connection ~ 1150 3850
Wire Wire Line
	1150 3850 1150 4100
$Comp
L power:GND #PWR010
U 1 1 62E4ED27
P 1450 4850
F 0 "#PWR010" H 1450 4600 50  0001 C CNN
F 1 "GND" H 1455 4677 50  0000 C CNN
F 2 "" H 1450 4850 50  0001 C CNN
F 3 "" H 1450 4850 50  0001 C CNN
	1    1450 4850
	1    0    0    -1  
$EndComp
Wire Wire Line
	1700 4550 1700 4400
Wire Wire Line
	1150 4550 1450 4550
Wire Wire Line
	1450 4850 1450 4550
Connection ~ 1450 4550
Wire Wire Line
	1450 4550 1700 4550
$Comp
L power:GND #PWR07
U 1 1 62E50EFF
P 2400 4300
F 0 "#PWR07" H 2400 4050 50  0001 C CNN
F 1 "GND" H 2405 4127 50  0000 C CNN
F 2 "" H 2400 4300 50  0001 C CNN
F 3 "" H 2400 4300 50  0001 C CNN
	1    2400 4300
	1    0    0    -1  
$EndComp
Wire Wire Line
	2400 4300 2400 4000
Wire Wire Line
	2400 4000 2650 4000
Wire Wire Line
	3750 3550 3850 3550
Wire Wire Line
	3850 3550 3850 3150
Wire Wire Line
	3850 3150 3200 3150
Wire Wire Line
	2550 3150 2550 3550
Wire Wire Line
	2550 3550 2650 3550
$Comp
L power:+5V #PWR05
U 1 1 62E53784
P 3200 3100
F 0 "#PWR05" H 3200 2950 50  0001 C CNN
F 1 "+5V" V 3215 3228 50  0000 L CNN
F 2 "" H 3200 3100 50  0001 C CNN
F 3 "" H 3200 3100 50  0001 C CNN
	1    3200 3100
	1    0    0    -1  
$EndComp
Wire Wire Line
	3200 3150 3200 3100
Connection ~ 3200 3150
Wire Wire Line
	3200 3150 2550 3150
Wire Wire Line
	5950 3450 4700 3450
Wire Wire Line
	4050 3450 4050 3700
Wire Wire Line
	4050 3700 3750 3700
Wire Wire Line
	3750 3850 4250 3850
Wire Wire Line
	4250 3850 4250 3650
Wire Wire Line
	4250 3650 5600 3650
Wire Wire Line
	5950 3550 5150 3550
Wire Wire Line
	4400 3550 4400 4000
Wire Wire Line
	4400 4000 3750 4000
NoConn ~ 5850 3750
Wire Wire Line
	5950 3750 5850 3750
NoConn ~ 7000 4050
NoConn ~ 7000 4150
Wire Wire Line
	6950 4150 7000 4150
Wire Wire Line
	6950 4050 7000 4050
$Comp
L power:+5V #PWR04
U 1 1 62E5DBAE
P 6000 2950
F 0 "#PWR04" H 6000 2800 50  0001 C CNN
F 1 "+5V" V 6015 3078 50  0000 L CNN
F 2 "" H 6000 2950 50  0001 C CNN
F 3 "" H 6000 2950 50  0001 C CNN
	1    6000 2950
	0    -1   -1   0   
$EndComp
Wire Wire Line
	6000 2950 6450 2950
$Comp
L power:GND #PWR09
U 1 1 62E5F79E
P 6450 4600
F 0 "#PWR09" H 6450 4350 50  0001 C CNN
F 1 "GND" H 6455 4427 50  0000 C CNN
F 2 "" H 6450 4600 50  0001 C CNN
F 3 "" H 6450 4600 50  0001 C CNN
	1    6450 4600
	1    0    0    -1  
$EndComp
Wire Wire Line
	6450 4600 6450 4450
$Comp
L Device:R R7
U 1 1 62E62FDE
P 8400 5550
F 0 "R7" H 8470 5596 50  0000 L CNN
F 1 "470R" H 8470 5505 50  0000 L CNN
F 2 "Resistor_THT:R_Axial_DIN0207_L6.3mm_D2.5mm_P7.62mm_Horizontal" V 8330 5550 50  0001 C CNN
F 3 "~" H 8400 5550 50  0001 C CNN
	1    8400 5550
	-1   0    0    1   
$EndComp
$Comp
L Device:R R2
U 1 1 62E647B7
P 4700 4100
F 0 "R2" H 4770 4146 50  0000 L CNN
F 1 "100K" H 4770 4055 50  0000 L CNN
F 2 "Resistor_THT:R_Axial_DIN0207_L6.3mm_D2.5mm_P10.16mm_Horizontal" V 4630 4100 50  0001 C CNN
F 3 "~" H 4700 4100 50  0001 C CNN
	1    4700 4100
	1    0    0    -1  
$EndComp
$Comp
L Device:R R3
U 1 1 62E661B0
P 5150 4100
F 0 "R3" H 5220 4146 50  0000 L CNN
F 1 "100K" H 5220 4055 50  0000 L CNN
F 2 "Resistor_THT:R_Axial_DIN0207_L6.3mm_D2.5mm_P7.62mm_Horizontal" V 5080 4100 50  0001 C CNN
F 3 "~" H 5150 4100 50  0001 C CNN
	1    5150 4100
	1    0    0    -1  
$EndComp
$Comp
L Device:R R4
U 1 1 62E66AFC
P 5600 4100
F 0 "R4" H 5670 4146 50  0000 L CNN
F 1 "100K" H 5670 4055 50  0000 L CNN
F 2 "Resistor_THT:R_Axial_DIN0207_L6.3mm_D2.5mm_P7.62mm_Horizontal" V 5530 4100 50  0001 C CNN
F 3 "~" H 5600 4100 50  0001 C CNN
	1    5600 4100
	1    0    0    -1  
$EndComp
$Comp
L power:GND #PWR08
U 1 1 62E686C4
P 5150 4400
F 0 "#PWR08" H 5150 4150 50  0001 C CNN
F 1 "GND" H 5155 4227 50  0000 C CNN
F 2 "" H 5150 4400 50  0001 C CNN
F 3 "" H 5150 4400 50  0001 C CNN
	1    5150 4400
	1    0    0    -1  
$EndComp
Wire Wire Line
	5150 4400 5150 4350
Wire Wire Line
	5150 4350 4700 4350
Wire Wire Line
	4700 4350 4700 4250
Connection ~ 5150 4350
Wire Wire Line
	5150 4350 5150 4250
Wire Wire Line
	5150 4350 5600 4350
Wire Wire Line
	5600 4350 5600 4250
Connection ~ 4700 3450
Wire Wire Line
	4700 3450 4050 3450
Wire Wire Line
	4700 3450 4700 3950
Wire Wire Line
	5150 3950 5150 3550
Connection ~ 5150 3550
Wire Wire Line
	5150 3550 4400 3550
Wire Wire Line
	5600 3950 5600 3650
Connection ~ 5600 3650
Wire Wire Line
	5600 3650 5950 3650
$Comp
L Device:LED D7
U 1 1 62E71A92
P 8100 3800
F 0 "D7" H 8093 4017 50  0000 C CNN
F 1 "GAME" H 8093 3926 50  0000 C CNN
F 2 "LED_THT:LED_D5.0mm" H 8100 3800 50  0001 C CNN
F 3 "~" H 8100 3800 50  0001 C CNN
	1    8100 3800
	-1   0    0    1   
$EndComp
Wire Wire Line
	8400 3800 8250 3800
$Comp
L Device:LED D8
U 1 1 62E75B53
P 8100 4150
F 0 "D8" H 8093 4367 50  0000 C CNN
F 1 "GAME" H 8093 4276 50  0000 C CNN
F 2 "LED_THT:LED_D5.0mm" H 8100 4150 50  0001 C CNN
F 3 "~" H 8100 4150 50  0001 C CNN
	1    8100 4150
	-1   0    0    1   
$EndComp
Wire Wire Line
	8400 4150 8250 4150
$Comp
L Device:LED D9
U 1 1 62E7A4AD
P 8100 4550
F 0 "D9" H 8093 4767 50  0000 C CNN
F 1 "GAME" H 8093 4676 50  0000 C CNN
F 2 "LED_THT:LED_D5.0mm" H 8100 4550 50  0001 C CNN
F 3 "~" H 8100 4550 50  0001 C CNN
	1    8100 4550
	-1   0    0    1   
$EndComp
Wire Wire Line
	8400 4550 8250 4550
$Comp
L Device:LED D10
U 1 1 62E7A4B4
P 8100 4900
F 0 "D10" H 8093 5117 50  0000 C CNN
F 1 "GAME" H 8093 5026 50  0000 C CNN
F 2 "LED_THT:LED_D5.0mm" H 8100 4900 50  0001 C CNN
F 3 "~" H 8100 4900 50  0001 C CNN
	1    8100 4900
	-1   0    0    1   
$EndComp
Wire Wire Line
	8400 4900 8250 4900
$Comp
L Device:LED D2
U 1 1 62E7EFAC
P 8100 2350
F 0 "D2" H 8093 2567 50  0000 C CNN
F 1 "GAME" H 8093 2476 50  0000 C CNN
F 2 "LED_THT:LED_D5.0mm" H 8100 2350 50  0001 C CNN
F 3 "~" H 8100 2350 50  0001 C CNN
	1    8100 2350
	-1   0    0    1   
$EndComp
Wire Wire Line
	8400 2350 8250 2350
$Comp
L Device:LED D3
U 1 1 62E7EFB3
P 8100 2700
F 0 "D3" H 8093 2917 50  0000 C CNN
F 1 "GAME" H 8093 2826 50  0000 C CNN
F 2 "LED_THT:LED_D5.0mm" H 8100 2700 50  0001 C CNN
F 3 "~" H 8100 2700 50  0001 C CNN
	1    8100 2700
	-1   0    0    1   
$EndComp
Wire Wire Line
	8400 2700 8250 2700
$Comp
L Device:LED D4
U 1 1 62E7EFBA
P 8100 3100
F 0 "D4" H 8093 3317 50  0000 C CNN
F 1 "GAME" H 8093 3226 50  0000 C CNN
F 2 "LED_THT:LED_D5.0mm" H 8100 3100 50  0001 C CNN
F 3 "~" H 8100 3100 50  0001 C CNN
	1    8100 3100
	-1   0    0    1   
$EndComp
Wire Wire Line
	8400 3100 8250 3100
$Comp
L Device:LED D5
U 1 1 62E7EFC1
P 8100 3450
F 0 "D5" H 8093 3667 50  0000 C CNN
F 1 "GAME" H 8093 3576 50  0000 C CNN
F 2 "LED_THT:LED_D5.0mm" H 8100 3450 50  0001 C CNN
F 3 "~" H 8100 3450 50  0001 C CNN
	1    8100 3450
	-1   0    0    1   
$EndComp
Wire Wire Line
	8400 3450 8250 3450
$Comp
L power:GND #PWR011
U 1 1 62E936CA
P 8400 5800
F 0 "#PWR011" H 8400 5550 50  0001 C CNN
F 1 "GND" H 8405 5627 50  0000 C CNN
F 2 "" H 8400 5800 50  0001 C CNN
F 3 "" H 8400 5800 50  0001 C CNN
	1    8400 5800
	1    0    0    -1  
$EndComp
Wire Wire Line
	8400 5800 8400 5700
Wire Wire Line
	8400 2350 8400 2700
Connection ~ 8400 2700
Wire Wire Line
	8400 2700 8400 3100
Connection ~ 8400 3100
Wire Wire Line
	8400 3100 8400 3450
Connection ~ 8400 3450
Wire Wire Line
	8400 3450 8400 3800
Connection ~ 8400 3800
Wire Wire Line
	8400 3800 8400 4150
Connection ~ 8400 4150
Wire Wire Line
	8400 4150 8400 4550
Connection ~ 8400 4550
Wire Wire Line
	8400 4550 8400 4900
Connection ~ 8400 4900
Wire Wire Line
	8400 4900 8400 5400
Wire Wire Line
	7950 4900 7300 4900
Wire Wire Line
	7300 4900 7300 3950
Wire Wire Line
	7300 3950 6950 3950
Wire Wire Line
	7950 4550 7400 4550
Wire Wire Line
	7400 4550 7400 3850
Wire Wire Line
	7400 3850 6950 3850
Wire Wire Line
	7950 4150 7500 4150
Wire Wire Line
	7500 4150 7500 3750
Wire Wire Line
	7500 3750 6950 3750
Wire Wire Line
	7950 3800 7600 3800
Wire Wire Line
	7600 3800 7600 3650
Wire Wire Line
	7600 3650 6950 3650
Wire Wire Line
	6950 3550 7700 3550
Wire Wire Line
	7700 3550 7700 3450
Wire Wire Line
	7700 3450 7950 3450
Wire Wire Line
	7950 3100 7550 3100
Wire Wire Line
	6950 3450 7550 3450
Wire Wire Line
	7550 3100 7550 3450
Wire Wire Line
	7950 2700 7400 2700
Wire Wire Line
	7400 2700 7400 3350
Wire Wire Line
	7400 3350 6950 3350
Wire Wire Line
	7950 2350 7250 2350
Wire Wire Line
	7250 2350 7250 3250
Wire Wire Line
	7250 3250 6950 3250
Text Notes 2550 5000 0    197  ~ 0
Your cat
Text Notes 5650 2350 0    197  ~ 0
Affichage
$EndSCHEMATC
